{
  "artists": {
    "href": "https://api.spotify.com/v1/search?offset=0&limit=2&query=Arijit&type=artist",
    "limit": 2,
    "next": "https://api.spotify.com/v1/search?offset=2&limit=2&query=Arijit&type=artist",
    "offset": 0,
    "previous": null,
    "total": 901,
    "items": [
      {
        "external_urls": {
          "spotify": "https://open.spotify.com/artist/4YRxDV8wJFPHPTeXepOstw"
        },
        "followers": {
          "href": null,
          "total": 143598851
        },
        "genres": [
          "hindi pop",
          "bollywood",
          "desi",
          "bangla pop"
        ],
        "href": "https://api.spotify.com/v1/artists/4YRxDV8wJFPHPTeXepOstw",
        "id": "4YRxDV8wJFPHPTeXepOstw",
        "images": [
          {
            "url": "https://i.scdn.co/image/ab6761610000e5eb5ba2d75eb08a2d672f9b69b7",
            "height": 640,
            "width": 640
          },
          {
            "url": "https://i.scdn.co/image/ab676161000051745ba2d75eb08a2d672f9b69b7",
            "height": 320,
            "width": 320
          },
          {
            "url": "https://i.scdn.co/image/ab6761610000f1785ba2d75eb08a2d672f9b69b7",
            "height": 160,
            "width": 160
          }
        ],
        "name": "Arijit Singh",
        "popularity": 92,
        "type": "artist",
        "uri": "spotify:artist:4YRxDV8wJFPHPTeXepOstw"
      },
      {
        "external_urls": {
          "spotify": "https://open.spotify.com/artist/5R5EUMWsrYDt3ItavrP6C5"
        },
        "followers": {
          "href": null,
          "total": 519191
        },
        "genres": [],
        "href": "https://api.spotify.com/v1/artists/5R5EUMWsrYDt3ItavrP6C5",
        "id": "5R5EUMWsrYDt3ItavrP6C5",
        "images": [
          {
            "url": "https://i.scdn.co/image/ab6761610000e5eb73f95b06dd6a1663571321d7",
            "height": 640,
            "width": 640
          },
          {
            "url": "https://i.scdn.co/image/ab6761610000517473f95b06dd6a1663571321d7",
            "height": 320,
            "width": 320
          },
          {
            "url": "https://i.scdn.co/image/ab6761610000f17873f95b06dd6a1663571321d7",
            "height": 160,
            "width": 160
          }
        ],
        "name": "Sushant KC",
        "popularity": 57,
        "type": "artist",
        "uri": "spotify:artist:5R5EUMWsrYDt3ItavrP6C5"
      }
    ]
  },
  "playlists": {
    "href": "https://api.spotify.com/v1/search?offset=0&limit=2&query=Arijit&type=playlist",
    "limit": 2,
    "next": "https://api.spotify.com/v1/search?offset=2&limit=2&query=Arijit&type=playlist",
    "offset": 0,
    "previous": null,
    "total": 901,
    "items": [
      {
        "collaborative": false,
        "description": "Presenting ❤️‍🩹 to you guy&#x27;s Arijit Singh All happy 😊 &amp; sad 😢 songs!",
        "external_urls": {
          "spotify": "https://open.spotify.com/playlist/7qxn6GsFH77ghVtKzOnAYA"
        },
        "href": "https://api.spotify.com/v1/playlists/7qxn6GsFH77ghVtKzOnAYA",
        "id": "7qxn6GsFH77ghVtKzOnAYA",
        "images": [
          {
            "height": null,
            "url": "https://image-cdn-ak.spotifycdn.com/image/ab67706c0000d72c74d28e2d8f83ff5f0b653212",
            "width": null
          }
        ],
        "name": "Arijit Singh All Songs ❤️",
        "owner": {
          "display_name": "Indian Playlists",
          "external_urls": {
            "spotify": "https://open.spotify.com/user/31z5abdthwzqcqlkz7u6v4keolv4"
          },
          "href": "https://api.spotify.com/v1/users/31z5abdthwzqcqlkz7u6v4keolv4",
          "id": "31z5abdthwzqcqlkz7u6v4keolv4",
          "type": "user",
          "uri": "spotify:user:31z5abdthwzqcqlkz7u6v4keolv4"
        },
        "primary_color": null,
        "public": true,
        "snapshot_id": "AAAUbdXEovRMTKoMq6Flj8rmqLPxWd3v",
        "tracks": {
          "href": "https://api.spotify.com/v1/playlists/7qxn6GsFH77ghVtKzOnAYA/tracks",
          "total": 132
        },
        "type": "playlist",
        "uri": "spotify:playlist:7qxn6GsFH77ghVtKzOnAYA"
      },
      null
    ]
  }
}